{
	"status": {
		"code": "200",
		"msg": "success"
	},
	"data": [{
		"category_name": "00 \ud83c\udfea",
		"subcategory": [{
			"00": "\ud83c\udfea",
			"01": "\ud83c\udfec",
			"02": "\ud83c\udfec",
			"03": "\ud83c\udfec",
			"04": "\ud83d\udc5a",
			"05": "\ud83d\udc5a",
			"06": "\ud83d\udc57",
			"07": "\ud83d\udc85",
			"08": "\ud83d\udc53",
			"09": "\ud83d\udd53",
			"10": "\ud83d\udd38",
			"11": "\ud83d\udc5c",
			"12": "\ud83d\udc5e",
			"13": "\ud83d\udc5d",
			"14": "\ud83d\udc59",
			"15": "\ud83c\udfc0",
			"16": "\ud83c\udfae",
			"17": "\ud83c\udfa5",
			"18": "\ud83c\udfa6",
			"19": "\ud83d\udcd0",
			"20": "\ud83d\udcda",
			"21": "\ud83d\udcd5",
			"22": "\ud83d\udcf0",
			"23": "\ud83c\udf81",
			"24": "\ud83c\udf7b",
			"25": "\ud83d\udeac",
			"26": "\ud83c\udf39",
			"27": "\ud83d\udcf1",
			"28": "\ud83d\udcbb",
			"29": "\ud83d\udcbb",
			"30": "\ud83d\udcc0",
			"31": "\ud83c\udfb5",
			"32": "\ud83d\udeaa",
			"33": "\ud83d\udc70",
			"34": "\ud83c\udf8e",
			"35": "\ud83d\uddff",
			"36": "\ud83c\udf09",
			"37": "\ud83c\udfb8",
			"38": "\ud83d\ude9c",
			"39": "\ud83d\udca1",
			"40": "\ud83c\udfa4",
			"41": "\ud83c\udfbe",
			"42": "\ud83c\udf8d",
			"43": "\ud83d\udd2a",
			"44": "\ud83c\udf7c",
			"45": "\ud83d\udcce",
			"46": "\ud83c\udf7c",
			"47": "\ud83d\udc56",
			"48": "\ud83d\udd2d",
			"49": "\ud83d\udd27",
			"50": "\ud83c\udfe4",
			"51": "\ud83c\udfe4",
			"52": "\ud83d\udeb2",
			"53": "\ud83d\ude9a",
			"54": "\ud83d\ude83",
			"55": "\ud83d\ude9c",
			"56": "\ud83d\udea4",
			"57": "\ud83c\udfec",
			"58": "\ud83c\udfec",
			"59": "\ud83d\udc6e"
		}]
	}, {
		"category_name": "01 \ud83c\udf5f",
		"subcategory": [{
			"00": "\ud83c\udf75",
			"01": "\ud83c\udf82",
			"02": "\ud83c\udf70",
			"03": "\ud83c\udf52",
			"04": "\ud83c\udf69",
			"05": "\ud83d\udcbb",
			"06": "\ud83c\udf79",
			"07": "\ud83c\udf66",
			"08": "\ud83c\udf65",
			"09": "\ud83c\udf7a",
			"10": "\ud83c\udf56",
			"11": "\ud83c\udf6b",
			"12": "\ud83c\udf67",
			"13": "\ud83c\udfea",
			"14": "\ud83d\ude9b",
			"15": "\ud83c\udf3d",
			"16": "\ud83c\udf64",
			"17": "\ud83c\udf76",
			"18": "\ud83c\udf71",
			"19": "\ud83c\udf75",
			"20": "\ud83c\udf57"
		}]
	}, {
		"category_name": "02 \ud83c\udf74",
		"subcategory": [{
			"00": "\ud83c\udf5b",
			"01": "\ud83c\udf64",
			"02": "\ud83c\udf79",
			"03": "\ud83c\udf72",
			"04": "\ud83c\udf5c",
			"05": "\ud83c\udf61",
			"06": "\ud83c\udf62",
			"07": "\ud83c\udf63",
			"08": "\ud83c\udf63",
			"09": "\ud83c\udfa3",
			"10": "\ud83c\udf58",
			"11": "\ud83c\udf46",
			"12": "\ud83c\udf71",
			"13": "\ud83c\udf59",
			"14": "\ud83c\udf5d",
			"15": "\ud83c\udf5b",
			"16": "\ud83c\udf74",
			"17": "\ud83c\udf55",
			"18": "\ud83c\udf77",
			"19": "\ud83c\udf55",
			"20": "\ud83c\udf54"
		}]
	}, {
		"category_name": "03 \ud83d\udcf1",
		"subcategory": [{
			"00": "\ud83d\udcf1",
			"01": "\ud83d\udcbb",
			"02": "\ud83d\udcbb",
			"03": "\ud83d\udcf2",
			"04": "\ud83d\udca1"
		}]
	}, {
		"category_name": "04 \ud83d\ude8d",
		"subcategory": [{
			"00": "\ud83d\ude8c",
			"01": "\ud83d\ude95",
			"02": "\ud83d\udea2",
			"03": "\ud83c\udfab",
			"04": "\ud83d\ude96",
			"05": "\ud83d\ude81",
			"06": "\ud83d\ude81",
			"07": "\ud83d\ude81",
			"08": "\ud83d\udea2",
			"09": "\ud83d\ude9b",
			"10": "\ud83d\ude8b",
			"11": "\ud83d\ude8e",
			"12": "\ud83d\ude8e",
			"13": "\ud83d\udc64",
			"14": "\ud83d\ude8c",
			"15": "\ud83d\ude97",
			"16": "\ud83d\ude83",
			"17": "\ud83c\udfaa"
		}]
	}, 
	{
		"category_name": "05 \ud83d\udc9d",
		"subcategory": [{
			"00": "\ud83c\udf38",
			"01": "\ud83d\udc90",
			"02": "\ud83c\udf31",
			"03": "\ud83c\udf89"
		}]
	}, 
	{
		"category_name": "06 \ud83d\udcfa \ud83d\udcc0",
            "subcategory": [
                {
                    "00": "\ud83d\udcf7",
                    "01": "\ud83c\udfa4",
                    "02": "\ud83d\udcbb",
                    "03": "\ud83c\udfa6",
                    "04": "\ud83c\udfa8",
                    "05": "\ud83c\udf3f",
                    "06":"\ud83d\udc75",
                    "07": "\ud83c\udfb2",
                    "08": "\ud83d\udeba",
                    "09": "\ud83c\udfab",
                    "10": "\ud83c\udf86",
                    "11": "\ud83c\udfb6",
                    "12": "\ud83c\udff0",
                    "13": "\ud83c\udfbc",
                    "14": "\ud83d\udc6f",
                    "15": "\ud83d\udc83",
                    "16": "\ud83d\udc6d",
                    "17": "\ud83c\udfc3",
                    "18": "\ud83d\udc6c",
                    "19": "\ud83c\udfc0",
                    "20": "\ud83c\udfb4",
                    "21": "\ud83d\uddfb",
                    "22": "\ud83c\udfb2",
                    "23": "\ud83c\udfae",
                    "24":"\ud83c\udfae",
                    "25": "\ud83d\udcf7",
                    "26": "\ud83d\udcfa \ud83d\udcfb",
                    "27": "\ud83d\udcfc \ud83d\udcbf",
                    "28": "\ud83c\udfa6",
                    "29": "\ud83c\udfae",
                    "30":"\ud83d\udc83",
                    "31": "\ud83c\udfa6",
                    "32": "\ud83c\udfb1",
                    "33": "\ud83d\udcdd",
                    "34": "\ud83c\udf89 \ud83c\udf88",
					"35":"\ud83d\udea7"
}]
	},{
		"category_name": "07 \ud83c\udfeb",
		"subcategory": [{
			"00": "\ud83c\udfeb",
			"01": "\ud83d\udc76",
			"02": "\ud83c\udfe1",
			"03": "\ud83c\udfeb",
			"04": "\ud83c\udfe2",
			"05": "\ud83c\udfe3",
			"06": "\ud83c\udfe4",
			"07": "\ud83c\udfeb",
			"08": "\ud83c\udfe3",
			"09": "\ud83c\udfe1",
			"10": "\ud83c\udfad",
			"11": "\ud83d\ude98",
			"12": "\ud83c\udfe5",
			"13": "\ud83c\udf73",
			"14": "\ud83d\udc6f",
			"15": "\ud83c\udfb5",
			"16": "\ud83d\udc83",
			"17": "\ud83c\udfad",
			"18": "\ud83d\ude81",
			"19": "\ud83c\udfeb",
			"20": "\ud83d\udeb2"
		}]
	}, {
		"category_name": "08 \ud83c\udfe5",
		"subcategory": [{
			"00": "\ud83d\udc8a",
			"01": "\ud83c\udfe5",
			"02": "\ud83c\udfe5",
			"03": "\ud83d\udc8a",
			"04": "\ud83c\udfe5",
			"05": "\ud83d\udc64",
			"06": "\ud83d\udc8a",
			"07": "\ud83d\udc65",
			"08": "\ud83d\udc69",
			"09": "\ud83d\udc7c",
			"10": "\ud83d\udc40",
			"11": "\ud83d\udc64",
			"12": "\ud83d\udc53",
			"13": "\ud83d\udc64",
			"14": "\ud83d\udc64",
			"15": "\ud83d\udc89",
			"16": "\ud83d\udc8a",
			"17": "\ud83d\udc9f",
			"18": "\ud83d\udc64",
			"19": "\ud83d\udc64",
			"20": "\ud83d\udc69",
			"21": "\ud83d\udc71",
			"22": "\ud83d\udc71",
			"23": "\ud83d\udc43",
			"24": "\ud83d\udc86",
			"25": "\ud83d\udc69",
			"26": "\ud83d\udcba",
			"27": "\ud83d\udc8a",
			"28": "\ud83d\udd2c",
			"29": "\ud83c\udfe0",
			"30": "\ud83d\udcaa"
		}]
	},
{
		"category_name": "09 \ud83d\udcde",
		"subcategory": [{
			"00": "\ud83d\udce8",
			"01": "\ud83d\udcde",
			"02": "\ud83d\udcee",
			"03": "\ud83d\udcbb",
			"04": "\ud83d\udcf0",
			"05": "\ud83d\udcfa",
			"06": "\ud83d\udcfb",
			"07": "\ud83d\udce3",
			"08": "\ud83c\udfa7",
			"09": "\ud83d\udcc3",
			"10": "\ud83d\udced"
		}]
	}, 

	{
		"category_name": "10 \ud83d\udc87",
		"subcategory": [{
			"00": "\ud83d\udc87",
			"01": "\ud83d\udc84",
			"02": "\ud83d\udc87",
			"03": "\ud83d\udc85",
			"04": "\ud83d\udcaa",
			"05": "\ud83d\udc86",
			"06": "\ud83d\udc86",
			"07": "\ud83d\udc85",
			"08": "\ud83d\udc42",
			"09": "\ud83d\udc69",
			"10": "\ud83d\udc71",
			"11": "\ud83d\udcab"
		}]
	}, {
		"category_name": "11 \ud83d\udcca",
		"subcategory": [{
			"00": "",
			"01": "\ud83d\udcca",
			"02": "\ud83d\udcc8",
			"03": "\ud83c\udf0d",
			"04": "\ud83d\udcbb",
			"05": "\ud83d\udcbb",
			"06": "\ud83d\udcc7",
			"07": "\ud83d\udc65",
			"08": "\ud83d\udc64",
			"09": "\ud83c\udfe1",
			"10": "\ud83c\udfe8",
			"11": "\ud83d\udc6c",
			"12": "\ud83d\udc77",
			"13": "\ud83d\udc74",
			"14": "\ud83d\udc65",
			"15": "\ud83d\udc64",
			"16": "\ud83d\udc72",
			"17": "\ud83d\udc65",
			"18": "\ud83d\udc75",
			"19": "\ud83d\udcdc",
			"20": "\ud83d\udc64",
			"21": "\ud83d\udc81",
			"22": "\ud83d\udce4",
			"23": "\ud83d\udc64",
			"24": "\ud83d\udd28",
			"25": "\ud83d\udd0e",
			"26": "\ud83d\udec3",
			"27": "\ud83d\udebb",
			"28": "\ud83c\udf0e",
			"29": "\ud83d\udcaf",
			"30": "\ud83d\udd2d",
			"31": "\ud83c\udfe2",
			"32": "\ud83d\udc6c"
		}]
	}, {
		"category_name": "12 \ud83d\ude97",
		"subcategory": [{
			"00": "\ud83d\ude98",
			"01": "\ud83d\ude97",
			"02": "\ud83d\ude95",
			"03": "\ud83d\ude90",
			"04": "\ud83d\ude9c",
			"05": "\ud83d\udd27",
			"06": "\ud83d\ude98",
			"07": "\ud83d\ude98",
			"08": "\ud83c\udf06",
			"09": "\ud83c\udf06",
			"10": "\ud83d\ude9a",
			"11": "\ud83d\ude93",
			"12": "\ud83d\ude95",
			"13": "\ud83d\ude9b",
			"14": "\ud83d\ude93",
			"15": "\ud83d\ude96",
			"16": "\ud83d\ude97",
			"17": "\ud83d\ude92",
			"18": "\ud83d\udea7",
			"19": "\ud83d\ude8b",
			"20": "\ud83d\ude8e",
			"21": "\ud83d\ude97",
			"22": "\ud83d\udea1",
			"23": "\ud83d\udeb2",
			"24": "\ud83d\udeb2",
			"25": "\ud83d\udea4",
			"26": "\ud83d\udea3",
			"27": "\ud83d\udea7"
		}]
	}, {
		"category_name": "13 \ud83d\udc36",
		"subcategory": [{
			"00": "\ud83d\udc07",
			"01": "\ud83d\udc36",
			"02": "\ud83d\udc23",
			"03": "\ud83d\udc08",
			"04": "\ud83d\udc07",
			"05": "\ud83c\udfe5",
			"06": "\ud83c\udfe5",
			"07": "\ud83c\udfe0",
			"08": "\ud83d\udc64",
			"09": "\ud83d\udc15",
			"10": "\ud83d\udc15"
		}]
	}, {
		"category_name": "14 \ud83c\udf3e",
		"subcategory": [{
			"00": "\ud83d\udc5a",
			"01": "\ud83d\udc62",
			"02": "\ud83c\udfc4",
			"03": "\ud83c\udf3f",
			"04": "\ud83c\udf7a",
			"05": "\ud83d\udc84",
			"06": "\ud83d\udc5a",
			"07": "\ud83d\udd26",
			"08": "\ud83d\uddfb",
			"09": "\ud83c\udf76",
			"10": "\ud83d\udd2c",
			"11": "\ud83c\udf3e",
			"12": "\ud83d\udcba",
			"13": "\ud83c\udf78",
			"14": "\ud83d\udd29",
			"15": "\ud83d\udcef",
			"16": "\ud83d\udd31",
			"17": "\ud83c\udfed",
			"18": "\ud83d\udcc4",
			"19": "\ud83c\udf71",
			"20": "\ud83d\udc12",
			"21": "\ud83d\udca3",
			"22": "\ud83d\udc62",
			"23": "\ud83c\udf32",
			"24": "\ud83d\ude8c",
			"25": "\ud83d\udca0",
			"26": "\ud83d\udd00"
		}]
	}, {
		"category_name": "15 \ud83d\udc77",
		"subcategory": [{
			"00": "\ud83c\udfe4",
			"01": "\ud83d\udc77",
			"02": "\ud83d\udccf",
			"03": "\ud83c\udfe2",
			"04": "\ud83c\udfec",
			"05": "\ud83c\udfa8",
			"06": "\ud83d\udca1",
			"07": "\ud83d\udd0c",
			"08": "\ud83d\ude9c",
			"09": "\ud83c\udf32",
			"10": "\ud83d\udc65",
			"11": "\ud83d\udc77",
			"12": "\ud83d\udca7",
			"13": "\ud83c\udfe0"
		}]
	}, {
		"category_name": "16 \ud83c\udfe1",
		"subcategory": [{
			"00": "\ud83d\udcfb",
			"01": "\ud83d\udeae",
			"02": "\ud83c\udfc8",
			"03": "\ud83c\udf37",
			"04": "\ud83d\udeaa",
			"05": "\ud83d\udebd",
			"06": "\ud83c\udfe0",
			"07": "\ud83c\udf39",
			"08": "\ud83c\udf84",
			"09": "\ud83d\udd10",
			"10": "\ud83d\udca7",
			"11": "\ud83d\udd29",
			"12": "\ud83c\udf73",
			"13": "\ud83d\udec0",
			"14": "\ud83c\udfec",
			"15": "\ud83c\udf67",
			"16": "\ud83d\udd01",
			"17": "\ud83c\udfe2",
			"18": "\ud83c\udfef ",
			"19": "\ud83d\udc5a",
			"20": "\ud83d\udcae",
			"21": "\ud83c\udf04",
			"22": "\ud83c\udf33",
			"23": "\ud83d\udca1",
			"24": "\ud83d\udc1c",
			"25": "\ud83c\udfca",
			"26": "\ud83d\udc6e"
		}]
	}, {
		"category_name": "17 \ud83d\udc5f",
		"subcategory": [{
			"00": "\ud83d\udc6d",
			"01": "\ud83d\udc57",
			"02": "\ud83d\udc1b",
			"03": "\ud83d\udd27",
			"04": "\ud83c\udfe0",
			"05": "\ud83d\udc54",
			"06": "\ud83d\udc5f",
			"07": "\ud83d\udeaa",
			"08": "\ud83d\udd56",
			"09": "\ud83d\udd04",
			"10": "\ud83d\udeaf",
			"11": "\ud83d\udc65",
			"12": "\ud83d\udc80"
		}]
	}, {
		"category_name": "18 \ud83d\udea4",
		"subcategory": [{
			"00": "\ud83c\udfbe",
			"01": "\ud83c\udfca",
			"02": "\ud83c\udfe1",
			"03": "\ud83c\udfc3",
			"04": "\ud83d\udcaa",
			"05": "\ud83c\udfca",
			"06": "\ud83c\udfc7",
			"07": "\ud83d\udeb9",
			"08": "\ud83c\udfc4",
			"09": "\ud83d\udc64",
			"10": "\ud83d\udcaa",
			"11": "\ud83c\udfc3",
			"12": "\ud83c\udfc8",
			"13": "\ud83c\udfc0",
			"14": "\ud83c\udfb1",
			"15": "\ud83d\udd2e",
			"16": "\ud83c\udfb3",
			"17": "\ud83d\udea4",
			"18": "\ud83d\udc6f",
			"19": "\ud83c\udfc3",
			"20": "\ud83c\udfbe",
			"21": "\ud83d\udeb4",
			"22": "\ud83c\udfa3",
			"23": "\ud83d\udd2b",
			"24": "\ud83d\udc98",
			"25": "\ud83c\udfbe",
			"26": "\ud83d\ude97",
			"27": "\ud83c\udf01",
			"28": "\ud83c\udfc7",
			"29": "\ud83d\udca7",
			"30": "\ud83c\udfc4",
			"31": "\ud83c\udfc0",
			"32": "\ud83c\udfc2",
			"33": "\ud83c\udfc4"
		}]
	}, {
		"category_name": "19 \ud83d\udcb0",
		"subcategory": [{
			 "00": "\ud83d\udc64",
			 "01": "\ud83d\udc71",
			 "02": "\ud83c\udfe0",
             "03": "\ud83d\udcb0",
             "04": "\ud83c\udfe8",
             "05":"\ud83c\udfe4"
		}]
	}, {
		"category_name": "20 \ud83c\udfe8",
		"subcategory": [{
			"00": "\ud83c\udfe8",
			"01": "\ud83c\udfe9",
			"02": "\ud83c\udfe3",
			"03": "\ud83c\udfeb",
			"04": "\ud83c\udfe1",
			"05": "\ud83d\udebc",
			"06": "\ud83d\udeaa",
			"07": "\ud83d\udc74",
			"08": "\ud83c\udfe0",
			"09": "\ud83d\udeb6",
			"10": "\ud83c\udfaa"
		}]
	}, {
		"category_name": "21 \ud83d\udc70",
		"subcategory": [{
			"00": "\ud83d\udc91",
			"01": "\ud83d\udc90",
			"02": "\ud83c\udf89",
			"03": "\ud83c\udf89",
			"04": "\ud83d\udc57",
			"05": "\ud83d\udcb8",
			"06": "\ud83d\udc58",
			"07": "\ud83c\udfbc",
			"08": "\ud83c\udfac",
			"09": "\ud83d\udcf9",
			"10": "\ud83c\udf8e",
			"11": "\ud83d\udea7"
		}]
	}, {
		"category_name": "22 \ud83d\udc6e",
		"subcategory": [{
			"00": "\ud83c\udfe4",
			"01": "\ud83d\udd28",
			"02": "\ud83d\ude91",
			"03": "\ud83d\udc64",
			"04": "\ud83d\udcda",
			"05": "\ud83d\udc65",
			"06": "\ud83d\udc6e",
			"07": "\ud83c\udf06",
			"08": "\ud83d\udc64"
		}]
	}, {
		"category_name": "23 \ud83d\udcb0",
		"subcategory": [{
			"00": "\ud83c\udfe7",
			"01": "\ud83d\udcd1",
			"02": "\ud83c\udfe6",
			"03": "\ud83d\udc68",
			"04": "\ud83c\udf07",
			"05": "\ud83d\udc66",
			"06": "\ud83d\udcaf",
			"07": "\ud83d\udcb0",
			"08": "\ud83d\udcb6",
			"09": "\ud83d\udcb1"
		}]
	}, {
		"category_name": "24 \ud83c\udf8c",
		"subcategory": [{
			"00": "\ud83c\udfeb",
			"01": "\ud83c\udfe4",
			"02": "\ud83c\udfef",
			"03": "\ud83c\udfaa",
			"04": "\ud83c\udfe0",
			"05": "\ud83c\udfe4",
			"06": "\ud83c\udf8c"
		}]
	}, {
		"category_name": "25 \u26ea",
		"subcategory": [{
			"00": "\ud83c\udf8c",
			"01": "\ud83d\udc65",
			"02": "\ud83d\udc65",
			"03": "\ud83d\udd06",
			"04": "\ud83c\udf08"
		}]
	}, {
		"category_name": "26 \u26fd",
		"subcategory": [{
			"00": "\ud83d\udca1",
			"01": "\ud83d\udca3",
			"02": "\ud83d\udca8",
			"03": "\ud83d\udca6"
		}]
	}, {
		"category_name": "27 \ud83d\udc69",
		"subcategory": [{
			"00": "\ud83d\udc8f",
			"01": "\ud83d\udc8d",
			"02": "\ud83d\udc95",
			"03": "\ud83d\udc6b"
		}]
	}]
}