{
    "status": {
        "code": "200",
        "msg": "success"
    },
    "data": [
        {
            "category_name": "ကုန္သည္ (လက္လီ အေရာင္းဆိုင္)",
            "subcategory": [
                {
                    "0": "ကုန္မ်ိဳးစံုဆိုင္ (၂၄ နာရီ)",
                    "1": "စူပါမတ္ကက္(သို႔) ကုန္ပစၥည္း အရာင္းဆိုင္",
                    "2": "ေစ်း၀ယ္စင္တာမ်ား",
                    "3": "ကုန္စံုဆိုင္၊ စတိုးဆိုင္",
                    "4": "အ၀တ္အထည္ႏွင့္ အသံုးအေဆာင္ ပစၥည္းဆိုင္",
                    "5": "အထည္အလိပ္ အေရာင္းဆိုင္",
                    "6": "ဖက္ရွင္ဆိုင္မ်ား",
                    "7": "အလွျပင္ ပစၥည္းအေရာင္းဆိုင္",
                    "8": "မ်က္မွန္ အေရာင္းဆိုင္",
                    "9": "နာရီဆိုင္",
                    "10": "လက္၀တ္ရတနာဆိုင္",
                    "11": "အိတ္မ်ိဳးစံုႏွင့္ ခရီးေဆာင္အိတ္ အေရာင္းဆိုင္",
                    "12": "ဖိနပ္ဆိုင္",
                    "13": "သားေရ ပစၥည္း အေရာင္းဆိုင္",
                    "14": "အတြင္းခံ၊ ညအိပ္၀တ္စံု အေရာင္းဆိုင္",
                    "15": "အားကစားပစၥည္း အေရာင္းဆိုင္",
                    "16": "ကေလးကစားစရာႏွင့္ ကြန္ပ်ဴတာဂိမ္းေခြ အေရာင္းဆိုင္",
                    "17": "ဓါတ္ပံုဆိုင္",
                    "18": "႐ုပ္ရွင္၊ ဓါတ္ပံုလုပ္ေရး",
                    "19": "စာေရးကိရိယာဆိုင္",
                    "20": "စာအုပ္ဆိုင္",
                    "21": "႐ုပ္ျပစာအုပ္ အေရာင္းဆိုင္",
                    "22": "သတင္းစာ၊ ဂ်ာနယ္ အေရာင္းဆိုင္",
                    "23": "လက္ေဆာင္ပစၥည္း အေရာင္းဆိုင္",
                    "24": "ေဖ်ာ္ရည္၊ယမကာ အေရာင္းဆိုင္",
                    "25": "ေဆးလိပ္၊ ေဆးရြက္ႀကီး အေရာင္းဆိုင္",
                    "26": "ပန္းအလွျပင္ဆိုင္",
                    "27": "မိုဘိုင္းဖုန္း အေရာင္းဆိုင္",
                    "28": "ကြန္ပ်ဴတာ အေရာင္းဆိုင္",
                    "29": "စက္အပိုပစၥည္း (Hardware) အေရာင္းဆိုင္",
                    "30": "ဗီြဒီယိုေခြႏွင့္ ဂိမ္းေခြ အငွားဆိုင္",
                    "31": "သီခ်င္းေခြႏွင့္ DVD ေခြ အေရာင္းဆိုင္",
                    "32": "ပရိေဘာကဆိုင္",
                    "33": "သတို႔သမီး ၀တ္စံု အေရာင္းဆိုင္",
                    "34": "ေရွးေဟာင္းပစၥည္းအေရာင္းဆိုင္",
                    "35": "ပန္းခ်ီ၊ ပန္းပု အေရာင္းဆိုင္",
                    "36": "ပန္းခ်ီ ပစၥည္း အေရာင္းဆိုင္",
                    "37": "ဂီတပစၥည္း အေရာင္းဆိုင္",
                    "38": "လယ္ယာထုတ္ကုန္ ပစၥည္း အေရာင္းဆိုင္",
                    "39": "အိမ္သံုး ပစၥည္း အေရာင္းဆိုင္",
                    "40": "အိမ္သံုး ေဖ်ာ္ေျဖေရး ပစၥည္း အေရာင္းဆိုင္",
                    "41": "Hobby Shops",
                    "42": "အိမ္တြင္း အလွဆင္ ပစၥည္း အေရာင္းဆိုင္",
                    "43": "မီးဖိုေခ်ာင္ႏွင့္ ေရခ်ိဳးခန္းသံုး ပစၥည္းဆိုင္",
                    "44": "ကေလးပစၥည္းႏွင့္ ဥယာဥ္သံုး ပစၥည္းဆိုင္",
                    "45": "႐ံုးသံုး ပစၥည္း အေရာင္းဆိုင္",
                    "46": "သားဖြားခန္းသံုး ပစၥည္း အေရာင္းဆိုင္",
                    "47": "တပတ္ရစ္၊ အဖိုးတန္ ပစၥည္းႏွင့္ အ၀တ္အထည္ အေရာင္းဆိုင္",
                    "48": "ဓါတုေဗဒ ပစၥည္း အေရာင္းဆိုင္",
                    "49": "စက္႐ံုတြင္း ဆိုင္မ်ား",
                    "50": "တပတ္ရစ္ ပစၥည္း အေရာင္းဆိုင္",
                    "51": "ပ႐ိုမိုးရွင္း ပစၥည္း အေရာင္းဆိုင္",
                    "52": "ဆိုင္ကယ္၊စက္ဘီးအေရာင္းဆိုင္",
                    "53": "ကုန္တင္ကားအေရာင္းဆိုင္",
                    "54": "ေနာက္တြဲယာဥ္ အေရာင္းဆိုင္",
                    "55": "ဂီယာစက္ပစၥည္းဆိုင္",
                    "56": "ေလွအေရာင္းဆိုင္",
                    "57": "အေထြေထြအေရာင္းဆိုင္",
                    "58": "လက္ကားအေရာင္းဆိုင္",
                    "59": "စစ္၀တ္စံုႏွင့္၀န္ထမ္း၀တ္စံုအေရာင္းဆိုင္"
                }
            ]
        },
              {
            "category_name": "အေအးႏွင့္ အစားအေသာက္",
            "subcategory": [
                {
                    "0": "လက္ဖက္ရည္ဆိုင္",
                    "1": "ကိတ္ဆိုင္",
                    "2": "မုန္႔မ်ိဳးစံုဆိုင္",
                    "3": "သစ္သီးဆိုင္",
                    "4": "Donuts ဆိုင္",
                    "5": "အင္တာနက္ ကဖီး",
                    "6": "အေအးဆိုင္",
                    "7": "ေရခဲမုန္႔ႏွင့္ ဒိန္ခ်ဥ္ဆိိုင္",
                    "8": "အခ်ိဳပြဲဆိုင္",
                    "9": "ဘီယာခ်က္စက္ရုံ",
                    "10": "အသားဆိုင္မ်ား",
                    "11": "ေခ်ာကလက္ဆိုင္မ်ား",
                    "12": "ေရခဲျခစ္ဆိုင္",
                    "13": "လမ္းေဘးေစ်းဆိုင္",
                    "14": "ကားျဖင့္ ေရာင္းေသာမုန္႔ဆိုင္",
                    "15": "ဟင္းသီးဟင္းရြက္ အေရာင္းဆိုင္",
                    "16": "ပင္လယ္စာေရာင္း၀ယ္ေရး",
                    "17": "ႏို႔ထြက္ပစၥည္းမ်ား",
                    "18": "အစားအစာ အိမ္တိုင္ရာေရာက္၀န္ေဆာင္မႈ",
                    "19": "ေကာ္ဖီႏွင့္လက္ဖက္ရည္ အသံုးပစၥည္းဆိုင္",
                    "20": "အသား အေရာင္းဆိုင္"
                }
            ]
        },
        {
            "category_name": "စားေသာက္ဆိုင္",
            "subcategory": [
                {
                    "0": "ျမန္မာထမင္းဆိုင္",
                    "1": "ပင္လယ္စာ စားေသာက္ဆိုင္",
                    "2": "ဒံေပါက္ႏွင့္ အေအးဆိုင္",
                    "3": "ေၾကးအိုးဆိုင္",
                    "4": "Hot Pot စားေသာက္ဆိုင္",
                    "5": "အကင္ဆိုင္ႏွင့္ ဘီယာဆိုင္",
                    "6": "ထိုင္း စားေသာက္ဆိုင္",
                    "7": "ဆူရွီ စားေသာက္ဆိုင္",
                    "8": "ဂ်ပန္ စားေသာက္ဆိုင္",
                    "9": "ငါးအသားလႊာဆိုင္",
                    "10": "အႏိၵယ စားေသာက္ဆိုင္",
                    "11": "သတ္သတ္လြတ္ စားေသာက္ဆိုင္",
                    "12": "ကိုရီးယား စားေသာက္ဆိုင္",
                    "13": "စင္ကာပူ စားေသာက္ဆိုင္",
                    "14": "အီတလီ စားေသာက္ဆိုင္",
                    "15": "ျပင္သစ္ စားေသာက္ဆိုင္",
                    "16": "အေနာက္တိုင္း စားေသာက္ဆိုင္",
                    "17": "အသင့္စား စားေသာက္ဆိုင္",
                    "18": "ဘား၊ႏိုက္ကလပ္",
                    "19": "ပီဇာ",
                    "20": "Sandwiches"
                }
            ]
        },
		  {
            "category_name": "ဖုန္း၊ ကြန္ပ်ဴတာႏွင့္ လွ်ပ္စစ္ပစၥည္းဆိုင္",
            "subcategory": [
                {
                    "0": "ဖုန္းအေရာင္းဆိုင္ႏွင့္ ျပဳျပင္ဆိုင္",
                    "1": "ကြန္ပ်ဴတာ၊ ဖုန္း အေရာင္းဆိုင္",
                    "2": "ကြန္ပ်ဴတာ ပ႐ိုဂရမ္ႏွင့္ ပစၥည္းဆိုင္",
                    "3": "ဖုန္း၊ကြန္ပ်ဴတာ အပိုပစၥည္းႏွင့္ ျပဳျပင္ဆိုင္",
                    "4": "လူသံုးကုန္ လွ်ပ္စစ္ ပစၥည္းဆိုင္"
                }
            ]
        },
		{
            "category_name": "ခရီးသြားႏွင့္ သယ္ယူပို႔ေဆာင္ေရး",
            "subcategory": [
                {
                    "0": "ဘက္(စ္)ကားလိုင္း",
                    "1": "တကၠစီ အငွားယာဥ္",
                    "2": "သေဘၤာ",
                    "3": "ကားလက္မွတ္ အေရာင္းငွာန",
                    "4": "ကားငွားလုပ္ငန္း",
                    "5": "ေလယာဥ္လိုင္း",
                    "6": "ေလဆိပ္",
                    "7": "ေလဆိပ္ နားေနေဆာင္",
                    "8": "ဆိပ္ကမ္း လုပ္ငန္း",
                    "9": "ကုန္တင္ သယ္ယူပို႔ေဆာင္ေရး",
                    "10": "ကမာၻလွည့္ ခရီးသြား ဆြဲေဆာင္မႈလုပ္ငန္း",
                    "11": "ကမာၻလွည့္ ခရီးသြားလုပ္ငန္း",
                    "12": "ဟိုတယ္ႏွင့္ ခရီးသြားလုပ္ငန္း",
                    "13": "ခရီးသြား ေအးဂ်င့္",
                    "14": "အမ်ားသံုးသယ္ယူပို႔ေဆာင္ေရး လုပ္ငန္း",
                    "15": "Caravanႏွင့္ Campervan ကား ငွားလုပ္ငန္း",
                    "16": "ေနာက္တြဲယာဥ္ ငွားလုပ္ငန္း",
                    "17": "ေနာက္တြဲယာဥ္ ရပ္နား ေနရာ(သို႔) အပန္းေျဖညအိပ္ ပန္းၿခံ"
                }
            ]
        },
		{
            "category_name": "ပန္းႏွင့္ လက္ေဆာင္ပစၥည္း",
            "subcategory": [
                {
                    "0": "ပန္းဆိုင္",
                    "1": "လက္ေဆာင္ႏွင့္ အမွတ္တရ ပစၥည္းဆိုင္",
                    "2": "ပ်ိဳးပင္ႏွင့္ ပန္းပင္ အေရာင္းဆိုင္",
                    "3": "ပါတီသံုး ပစၥည္း အေရာင္းဆိုင္"
                }
            ]
        },
        {
            "category_name": "ေဖ်ာ္ေျဖေရးႏွင့္မီဒီယာ",
            "subcategory": [
                {
                    "0": "ဓါတ္ပံုဆိုင္",
                    "1": "ကာရာအိုေက",
                    "2": "အင္တာနက္ကေဖးဆိုင္",
                    "3": "႐ုပ္ရွင္႐ံု",
                    "4": "ပန္းခ်ီျပခန္း",
                    "5": "႐ုကၡေဗဒဥယာဥ္",
                    "6": "အၾကားအျမင္ႏွင့္ေဗဒင္ဆရာ",
                    "7": "ကာစီႏိုကစား႐ံု",
                    "8": "ယဥ္ေက်းမႈစင္တာ",
                    "9": "လက္မွတ္အေရာင္း",
                    "10": "ပြဲေတာ္မ်ား",
                    "11": "Jazz&Blues",
                    "12": "ျပတိုက္",
                    "13": "သီခ်င္းသြင္းေနရာ",
                    "14": "ေအာပရာကပြဲ",
                    "15": "အကေဖ်ာ္ေျဖပြဲ",
                    "16": "ပေရာဖက္ရွင္နယ္အားကစားအသင္းမ်ား",
                    "17": "ၿပိဳင္ပြဲမ်ား",
                    "18": "လူမႈေရးကလပ္",
                    "19": "အားကစားကြင္း",
                    "20": "အမွတ္တရ",
                    "21": "ဒစ္ဂ်စ္တယ္ျပပြဲ",
                    "22": "ေလာင္းကစားပြဲမ်ား",
                    "23": "အြန္လိုင္းဂိမ္းဆိုင္မ်ား",
                    "24": "ဗီြဒီယိုဂိမ္းဆိုင္",
                    "25": "အရြယ္ေရာက္သူမ်ားအတြက္ဒစ္ဂ်စ္တယ္ျပပြဲ",
                    "26": "TV၊ေရဒီယို၊ၿဂိဳလ္ထု",
                    "27": "သီခ်င္း(CDs၊ ကက္စက္၊ အယ္ဘမ္)",
                    "28": "႐ုပ္ရွင္(DVDs၊ဗီြဒီယို)",
                    "29": "ကစားစက္မ်ား",
                    "30": "အကသင္တန္း",
                    "31": "႐ုပ္ရွင္ထုတ္လုပ္ေရး",
                    "32": "ေဂါက္(ဖ္)သင္တန္း",
                    "33": "အႏုပညာရွင္၊စာေရးဆရာ",
                    "34": "ပြဲစီစဥ္ေရးႏွင့္ပြဲ၀န္ေဆာင္မႈ",
					"35":"၀င္ၾကး"
                }
            ]
        },
        {
            "category_name": "ပညာေရးႏွင့္ သင္ၾကားေရး",
            "subcategory": [
                {
                    "0": "စာသင္ေက်ာင္း",
                    "1": "ေန႔ကေလးထိန္းေက်ာင္း",
                    "2": "မူႀကိဳေက်ာင္းမ်ား",
                    "3": "မူလတန္းႏွင့္ အလယ္တန္းေက်ာင္း",
                    "4": "ေကာလိပ္ႏွင့္ တကၠသိုလ္",
                    "5": "အရြယ္ေရာက္ပညာေရး",
                    "6": "စီးပြားေရးႏွင့္ အတြင္းေရးမႈး သင္တန္း",
                    "7": "အသက္ေမြး၀မ္းေက်ာင္းႏွင့္ ကုန္သြယ္ေရးေက်ာင္း",
                    "8": "ႏိုင္ငံျခားဘာသာေက်ာင္း",
                    "9": "က်ဳရွင္",
                    "10": "အႏုပညာေက်ာင္း",
                    "11": "ယဥ္ေမာင္းသင္တန္းေက်ာင္း",
                    "12": "အေရးေပၚသူနာျပဳ သင္တန္းေက်ာင္း",
                    "13": "အခ်က္အျပဳတ္ေက်ာင္း",
                    "14": "အကခန္းမ၊ စတူဒီယို၊ ေက်ာင္း",
                    "15": "အဆိုသင္တန္းေက်ာင္း",
                    "16": "အကသင္တန္းေက်ာင္း",
                    "17": "ျပဇာတ္ေက်ာင္း",
                    "18": "ေလယာဥ္ေမာင္း သင္တန္းေက်ာင္း",
                    "19": "အထူးသင္တန္းေက်ာင္း",
                    "20": "ဆိုင္ကယ္စီးသင္တန္းေက်ာင္း"
                }
            ]
        },
        {
            "category_name": "ေဆးပစၥည္းႏွင့္ က်န္းမာေရး",
            "subcategory": [
                {
                    "0": "ေဆးပစၥည္းမ်ိဳးစံု အေရာင္းဆိုင္",
                    "1": "အထူးကု ေဆးခန္းမ်ား",
                    "2": "အေထြေထြ ေရာဂါကုေဆး႐ံုမ်ား",
                    "3": "ေဆးေပးခန္းႏွင့္ က်န္းမာေရးစင္တာမ်ား",
                    "4": "စိတ္က်န္းမာေရးေဆြးေႏြးျခင္း",
                    "5": "ဆရာ၀န္မ်ား",
                    "6": "ကိုယ္၀န္ေဆာင္ႏွင့္ သားဖြား၀န္ေဆာင္မႈ",
                    "7": "သားဖြားႏွင့္ မီးယပ္ေရာဂါကု ဆရာ၀န္",
                    "8": "သားဖြားမီးယပ္ဆိုင္ရာ၀န္ေဆာင္မႈမ်ား",
                    "9": "ကေလးအထူးကု ဆရာ၀န္",
                    "10": "မ်က္စိ အထူးကုေဆးခန္း",
                    "11": "မ်က္စိအထူးကုဆရာ၀န္မ်ား",
                    "12": "မ်က္စိဆရာ၀န္မ်ား",
                    "13": "သြားေဆးခန္း",
                    "14": "ခံတြင္းဆရာ၀န္မ်ား",
                    "15": "ေဆးထိုးခန္း",
                    "16": "အျခားေဆး၀ါး",
                    "17": "ႏွလုံးအထူးကုမ်ား",
                    "18": "ေၾကာ႐ိုးဆိုင္ရာ ဆရာ၀န္မ်ား",
                    "19": "ေမးရုိးဆိုင္ရာဆရာ၀န္မ်ား",
                    "20": "ေရာဂါေဗဒပညာရွင္",
                    "21": "႐ုုပ္ပိုင္းဆိုင္ရာ ကုထံုး",
                    "22": "ေျခေထာက္ပိုင္းဆိုင္ရာ ကုထံုး",
                    "23": "စိတၱဇဆရာ၀န္မ်ား",
                    "24": "အလွအပေရးရာခြဲစိတ္ဆရာ၀န္မ်ား",
                    "25": "အေရျပားအထူးကု ဆရာ၀န္",
                    "26": "သူနာျပဳ အဖြဲ႕",
                    "27": "မသန္္မစြမ္းသံုး အေထာက္အကူ ပစၥည္း",
                    "28": "အားကစားသမားသံုး ေဆးပစၥည္း",
                    "29": "ဓါတ္ခြဲခန္းႏွင့္ က်န္းမာေရး စစ္ေဆးမႈ",
                    "30": "အိမ္တိုင္ရာေရာက္ က်န္းမာေရး ၀န္ေဆာင္မႈ",
                    "31": "အေလးခ်ိန္ ေလွ်ာ့ခ်မႈ ကုသျခင္း"
                }
            ]
        },
		{
            "category_name": "ဆံပင္ႏွင့္ အလွအပ",
            "subcategory": [
                {
                    "0": "အလွျပင္ဆိုင္မ်ား",
                    "1": "အလွျပင္ ပစၥည္း အေရာင္းဆိုင္",
                    "2": "ဆံသဆိုင္မ်ား",
                    "3": "အလွျပင္ဆိုင္မ်ား",
                    "4": "ကိုယ္ကာယ ေလ့က်င့္ေရး (GYM)",
                    "5": "Day Spas",
                    "6": "အႏွိပ္ခန္း",
                    "7": "ေျခသည္း၊ လက္သည္း အလွျပဳျပင္ေရး",
                    "8": "နားေဖာက္ဆိုင္",
                    "9": "အသားအေရ ထိန္းသိမ္း ျပဳျပင္ေရး",
                    "10": "ဆံပင္ဆိုးဆိုင္",
                    "11": "တက္တူးထိုးဆိုင္မ်ား"
                }
            ]
        },
		{
            "category_name": "မီဒီယာႏွင့္ ဆက္သြယ္ေရး",
            "subcategory": [
                {
                    "0": "ေခ်ာပို႔လုပ္ငန္းမ်ား",
                    "1": "တယ္လီဖုန္း ၀န္ေဆာင္မႈ",
                    "2": "စာတိုက္လုပ္ငန္း",
                    "3": "အင္တာနက္ ၀န္ေဆာင္မႈ",
                    "4": "ပုံႏွိပ္ထုတ္ေ၀ေရး လုပ္ငန္း",
                    "5": "ရုပ္ျမင္သံၾကားရုံးမ်ား",
                    "6": "ေရဒီယိုစခန္း",
                    "7": "အသံဖမ္းႏွင့္ အသံထုတ္လႊင့္ေရး လုပ္ငန္း",
                    "8": "အသံသြင္း စတူတီယို",
                    "9": "အင္တာနက္မွ ထုတ္ေ၀သူ",
                    "10": "ေၾကးနန္း ဆက္သြယ္ေရး"
                }
            ]
        },
		{
            "category_name": "ကၽြမ္းက်င္မႈ လုပ္ေရး ၀န္ေဆာင္မႈ",
            "subcategory": [
                {
                    "0": "ဖက္ရွင္",
                    "1": "ဂရပ္ဖစ္ ဒီဇိုင္း",
                    "2": "Web ဒီဇိုင္း",
                    "3": "Web Hosting",
                    "4": "ကြန္ပ်ဴတာ ၀န္ေဆာင္မႈႏွင့္ ျပဳျပင္ေရး",
                    "5": "IT ၀န္ေဆာင္မႈ",
                    "6": "ပံုႏွိပ္လုပ္ေရး",
                    "7": "စကားျပန္ႏွင့္ ဘာသာျပန္လုပ္ေရး",
                    "8": "အလုပ္အကုိင္ရွာေဖြေရး ေအဂ်င္စီမ်ား",
                    "9": "အိမ္ၿခံေျမအကိ်ဳးေဆာင္လုပ္ေရး",
                    "10": "အိမ္ၿခံေျမ စီမံခန္႔ခြဲမႈ",
                    "11": "အေဆာက္အအုံပိုင္း ဒီဇိုင္နာမ်ား",
                    "12": "အင္ဂ်င္နီယာ",
                    "13": "ပတ္၀န္းက်င္ထိမ္းသိမ္းေရး အတိုင္ပင္ခံ",
                    "14": "စီစစ္တိုင္းတာမႈ အဖြဲ႕",
                    "15": "စာရင္းကိုင္",
                    "16": "လံုၿခံဳေရး ၀န္ေဆာင္မႈ",
                    "17": "အလုပ္သမားသမဂၢမ်ား",
                    "18": "စီးပြားေရးအတိုင္ပင္ခံ",
                    "19": "စီးပြားေရးအခြင့္အလမ္းမ်ား",
                    "20": "စီးပြားေရး၀န္ေဆာင္မႈမ်ား",
                    "21": "စီးပြားေရးလုပ္ေရး အက်ိဳးေဆာင္",
                    "22": "သြင္းကုန္၊ထုတ္ကုန္ ေအးဂ်င့္",
                    "23": "ေရွ႕ေန",
                    "24": "ဥပေဒေရးရာ ၀န္ေဆာင္မႈမ်ား",
                    "25": "စံုေထာက္ႏွင့္ သုေတသန ၀န္ေဆာင္မႈ",
                    "26": "ေစ်းကြက္",
                    "27": "လူမႈဆက္ဆံေရး",
                    "28": "ေဒသခံရွာရန္ စာရင္း",
                    "29": "ကၽြမ္းက်င္မႈ ပိုင္းဆိုင္ရာ ၀န္ေဆာင္မႈ",
                    "30": "သိပၸံပညာအဖြဲ႕",
                    "31": "႐ံုးခန္း",
                    "32": "နာမည္ႀကီး လူမ်ား၏ စီမံခန္႔ခြဲမႈႏွင့္ ပံုတူလုပ္ေရး"
                }
            ]
        },
		 {
            "category_name": "ကား၊ဆိုင္ကယ္ ပစၥည္း အေရာင္းႏွင့္ ၀န္ေဆာင္မႈ",
            "subcategory": [
                {
                    "0": "ကား ပစၥည္း အေရာင္းဆိုင္",
                    "1": "ကားေရာင္း စင္တာ- အသစ္",
                    "2": "ကားေရာင္းဆိုင္ - တပတ္ရစ္",
                    "3": "ကား အပိုပစၥည္း အသစ္အေရာင္းဆိုင္",
                    "4": "ကား အပိုပစၥည္း တပတ္ရစ္ အေရာင္းဆိုင္",
                    "5": "တာယာႏွင့္ တျခား အပိုပစၥည္း အေရာင္းဆိုင္",
                    "6": "ကားေရွ႕မွန္ တပ္ဆင္ျခင္းႏွင့္ ျပဳျပင္ေရး",
                    "7": "ကားျပဳျပင္မႈႏွင့္ ၀န္ေဆာင္မႈ",
                    "8": "ဂက္(စ္)ဆိုင္",
                    "9": "ဓါတ္ဆီဆိုင္",
                    "10": "ကုန္တင္ကားႀကီး အငွားလုပ္ငန္း",
                    "11": "ဘရိတ္ႏွင့္ ကလပ္ျပဳျပင္ေရး",
                    "12": "ေမာ္ေတာ္ယာဥ္ လွ်ပ္စစ္ ျပဳျပင္ေရး",
                    "13": "ေမာ္ေတာ္ယာဥ္ စစ္ေဆးျခင္းလုပ္ငန္း",
                    "14": "ဂီယာႏွင့္ဂီယာအုံံံ ျပဳျပင္ေရးလုပ္ငန္း",
                    "15": "ကားဆြဲသည့္ လုပ္ငန္း",
                    "16": "ကားအလွျပင္ ပစၥည္းအေရာင္းဆိုင္",
                    "17": "ကားေဘာ္ဒီ ျပင္ဆိုင္ႏွင့္ သုတ္ေဆးဆိုင္",
                    "18": "ကားရပ္ခ",
					"19": "ဂိတ္ေၾကး",
                    "20": "အပန္းေျဖ ေနာက္တြဲကား အေရာင္း",
                    "21": "အပန္းေျဖကား အေရာင္း",
                    "22": "ဇိမ္ခံကားႏွင့္ အပိုပစၥည္း",
                    "23": "ေလေၾကာင္းသယ္ယူပို႔ေဆာင္ေရး",
                    "24": "ဆိုင္ကယ္အေရာင္းႏွင့္ျပဳျပင္ဆိုင္",
                    "25": "စက္ဘီးအေရာင္းဆိုင္ႏွင့္ျပဳျပင္ဆိုင္",
                    "26": "ေလွေရာင္း၀ယ္ေရး",
                    "27": "ေလွငွားရမ္းျခင္းလုပ္ငန္း"
                }
            ]
        },
        {
            "category_name": "တိရိစာၦန္ အေရာင္းဆိုင္ႏွင့္ ၀န္ေဆာင္မႈ",
            "subcategory": [
                {
                    "0": "အိမ္ေမြးတိရိစာၦန္ဆိုင္မ်ား",
                    "1": "အိမ္ေမြးတိရိစာၦန္ သင္တန္း",
                    "2": "အိမ္ေမြးတိရိစာၦန္ အလွျပဳျပင္ေရး",
                    "3": "အိမ္ေမြးတိရိစာၦန္ ေစာင့္ေရွာက္မႈ",
                    "4": "တိရိစာၦန္ ေစာင့္ေရွာက္မႈႏွင့္ ပစၥည္း အေရာင္းဆိုင္",
                    "5": "တိရိစာၦန္ အထူးကုေဆးခန္း",
                    "6": "တိရိစာၦန္ ေဆးရံု",
                    "7": "အိမ္ေမြးတိရိစာၦန္ ထိန္းသိမ္္းအေဆာင္",
                    "8": "တိရိစာၦန္ကု ဆရာ၀န္မ်ား",
                    "9": "ေခြးထိန္းသိမ္းေရး",
                    "10": "အိမ္ေမြးတိရိစာၦန္ နာေရးျပဳလုပ္မႈ"
                }
            ]
        },
                {
            "category_name": "လယ္ယာစိုက္ပ်ိဳးေရးႏွင့္ ကုန္ထုတ္လုပ္မႈ",
            "subcategory": [
                {
                    "0": "အ၀တ္အထည္ထုတ္လုပ္ေရး",
                    "1": "ဖိနပ္ထုတ္လုပ္ေရး",
                    "2": "အားကစားပစၥည္းထုတ္လုပ္ေရး",
                    "3": "စိုက္ပ်ိဳးေရးလုပ္ေရး",
                    "4": "အေဖ်ာ္ယမကာထုတ္လုပ္ေရး",
                    "5": "အလွကုန္ပစၥည္း ထုတ္လုပ္ေရး",
                    "6": "အထည္အလိပ္ ထုတ္လုပ္ေရး",
                    "7": "လ်ွပ္စစ္ပစၥည္း ထုတ္လုပ္ေရး",
                    "8": "ဘိလပ္ေျမ၊ အဂၤေတ၊ ကြန္ကရစ္ ထုတ္လုပ္ေရး",
                    "9": "ေၾကြထည္ ပစၥည္းထုတ္လုပ္ေရး",
                    "10": "ဓါတုေဗဒ ပစၥည္းထုတ္လုပ္ေရး",
                    "11": "လယ္ယာလုပ္ငန္း",
                    "12": "ပရိေဘာဂ ထုတ္လုပ္ေရး",
                    "13": "ဖန္ပစၥည္းအမ်ိဳးမ်ိဳး ကုန္ထုတ္လုပ္ေရး",
                    "14": "စက္ပစၥည္းမ်ိဳးစံု ကုန္ထုတ္လုပ္ေရး",
                    "15": "သတၳဳပစၥည္း ကုန္ထုတ္လုပ္ေရး",
                    "16": "သတၳဳတူးေဖာ္ေရးလုပ္ငန္း",
                    "17": "ဆီႏွင့္ဓါတ္ေငြ႔ထုတ္လုပ္ေရး",
                    "18": "စကၠဴ ထုတ္လုပ္ေရး",
                    "19": "ပလပ္စတစ္ႏွင့္ ဖိုက္ဘာ ထုတ္လုပ္ေရး",
                    "20": "တိရိစာၦန္မ်ိဳးပြားေရးလုပ္ေရး",
                    "21": "ေပါက္ကြဲေစတတ္ေသာ ပစၥည္း ထုတ္လုပ္ေရး",
                    "22": "ရာဘာထုတ္လုပ္ေရး",
                    "23": "ကၽြန္းသစ္ႏွင့္သစ္ေတာ",
                    "24": "ပို႔ေဆာင္ေရး ကုန္ထုတ္လုပ္ေရး",
                    "25": "အေထြေထြ ကုန္ထုတ္လုပ္ေရး",
                    "26": "အျခားကုန္ထုတ္လုပ္ေရး"
                }
            ]
        },
  
        {
            "category_name": "ေဆာက္လုပ္ေရးပစၥည္းႏွင့္၀န္ေဆာင္မႈ",
            "subcategory": [
                {
                    "0": "ေဆာက္လုပ္ေရးပစၥည္းဆိုင္",
                    "1": "အေဆာက္အအံုအေဟာင္းၿဖိဳခ်အဖြဲ႕",
                    "2": "ဗိသုကာပညာရွင္၊ အင္ဂ်င္နီယာမ်ားႏွင့္တိုင္းတာမႈ",
                    "3": "ေဆာက္လုပ္ေရးကုမၸဏီမ်ား",
                    "4": "ကုန္မာဆိုင္",
                    "5": "သုတ္ေဆးအေရာင္းဆိုင္",
                    "6": "လွ်ပ္စစ္ပစၥည္းအေရာင္းဆိုင္",
                    "7": "လွ်ပ္စစ္ပညာရွင္အဖြဲ႕",
                    "8": "ေျမတူးစက္လုပ္ငန္း",
                    "9": "ပတ္ဝန္းက်င္ထိန္းသိမ္းေရးအကဲျဖတ္စိစစ္ေရးအဖြဲ႕",
                    "10": "စစ္ေဆးေရးအဖြဲ႕",
                    "11": "အဂၤေတႏွင့္ကြန္ကရစ္အဖြဲ႕",
                    "12": "ေရပိုက္ျပဳျပင္အဖြဲ႕",
                    "13": "ေခါင္မိုးတပ္အဖြဲ႕"
                }
            ]
        },
        {
            "category_name": "အိမ္၊ဥယာဥ္၀န္ေဆာင္မႈ",
            "subcategory": [
                {
                    "0": "ေရွးေဟာင္းပစၥည္းဆိုင္",
                    "1": "သန္႔ရွင္းေရးအဖြဲ႕",
                    "2": "လက္မႈပစၥည္းႏွင့္အားကစားဆိုင္",
                    "3": "ပန္းဆိုင္",
                    "4": "အိမ္သံုးပရိေဘာကဆိုင္",
                    "5": "အိမ္ပစၥည္းအေရာင္းဆိုင္",
                    "6": "အိမ္အေဟာင္းျပဳျပင္ေရးအဖြဲ႕",
                    "7": "ပန္းၿခံအလွဆင္အဖြဲ႕",
                    "8": "အိမ္တြင္းအလွဆင္ျခင္း",
                    "9": "လံုျခံဳေရးပစၥည္းမ်ားတပ္ဆင္ျခင္း",
                    "10": "ေရတေလွ်ာက္တပ္ဆင္ျခင္း",
                    "11": "ၿခံစည္းရိုးခတ္ျခင္း",
                    "12": "မီးဖုိေခ်ာင္ျပဳျပင္ျခင္း",
                    "13": "ေရခ်ဳိးခန္းျပဳျပင္ျခင္း",
                    "14": "မွန္တပ္သမား",
                    "15": "ေလေအး/ေလပူေပးစက္တပ္ဆင္ျခင္း",
                    "16": "ေရခဲေသတၱာတပ္ဆင္ႏွင့္ျပဳျပင္ျခင္း",
                    "17": "အိမ္တြင္း၊ရံုးတြင္းမြမ္းမံမႈ",
                    "18": "ေနအိမ္အျပင္ဘက္မြမ္းမံမႈ",
                    "19": "ခန္းစည္းလုိက္ကာမ်ား",
                    "20": "စာလံုးထြင္းေရးဆြဲျခင္း",
                    "21": "ေက်ာက္ထြင္းသမား",
                    "22": "ဆိုလာျပား",
                    "23": "သစ္ပင္မ်ားခုတ္လွဲျခင္း",
                    "24": "ပိုးမႊားထိန္းခ်ဳပ္ေရး",
                    "25": "ေရကူးကန္ပစၥည္းႏွင့္၀န္ေဆာင္မႈ",
                    "26": "လံုၿခံဳေရး၀န္ေဆာင္မႈ"
                }
            ]
        },
        {
            "category_name": "အိ္မ္တြင္းဝန္ေဆာင္မႈ",
            "subcategory": [
                {
                    "0": "ေန႔ကေလးထိန္းေက်ာင္း",
                    "1": "အ၀တ္ အစို၊ေျခာက္ေလွ်ာ္လုပ္ငန္း",
                    "2": "ပိုးမႊားထိမ္းခ်ဳပ္ေရး",
                    "3": "ပစၥည္းမ်ားႏွင့္ျပဳျပင္ေရး",
                    "4": "အိမ္ထိန္းသိမ္းေစာင့္ေရွာက္ျခင္း",
                    "5": "စက္ခ်ဳပ္လုပ္ငန္း",
                    "6": "ဖိိနပ္ျပဳျပင္ေရးလုပ္ငန္း",
                    "7": "ပရိေဘာက အေရာင္တင္ျခင္း",
                    "8": "နာရီျပင္ဆိုင္",
                    "9": "ပစၥည္းသိမ္းစည္းေရးလုပ္ငန္း",
                    "10": "အမိႈက္ႏွင့္အပိုပစၥည္း ရွင္းလင္းေရး",
                    "11": "ပရဟိတ အဖြဲ႔အစည္း",
                    "12": "အသုဘႏွင့္ သခ်ိဳင္း၀န္ေဆာင္မႈလုပ္ငန္း"
                }
            ]
        },
		{
            "category_name": "အားကစားႏွင့္ အပန္းေျဖ",
            "subcategory": [
                {
                    "0": "အားကစား႐ံု",
                    "1": "ပင္လယ္ကမ္းေျခ",
                    "2": "ပန္းၿခံ",
                    "3": "ကစားကြင္း",
                    "4": "ကိုယ္ကာယ ေလ့က်င့္ခန္းမ",
                    "5": "ေရကူးကန္",
                    "6": "အားကစားကလပ္မ်ား",
                    "7": "Yoga",
                    "8": "ေရလႊာလႈိင္းစီးနည္း ေလ့က်င့္ေရး",
                    "9": "ကိုယ္ကာယ ေလ့က်င့္ေရး ဆရာမ်ား",
                    "10": "ကုိယ္ကာယေလ့က်င့္ေရး",
                    "11": "ၿပိဳင္ပြဲ",
                    "12": "ေဘာလံုး",
                    "13": "ဘက္စကပ္ေဘာ",
                    "14": "ဘိလက္ယက္",
                    "15": " ေဂါက္ရုိက္ကစားနည္း",
                    "16": "ဘိုးလင္းကစားနည္း",
                    "17": "ေလွအေပ်ာ္စီးျခင္း",
                    "18": "(ဂ်ဴဒို/ကရာေတး)ကုိယ္ခံပညာ",
                    "19": "ကုိယ္လက္လႈပ္ရွားအားကစား",
                    "20": "တင္းနစ္ကစားနည္း",
                    "21": "ဆုိင္ကယ္စီး",
                    "22": "ငါးမွ်ားျခင္း",
                    "23": "ေသနတ္ပစ္နည္း",
                    "24": "ေလးပစ္ကစားနည္း",
                    "25": "ၾကက္ေတာင္ရုိက္ကစားနည္း",
                    "26": "GoKartကားေမာင္းျခင္း",
                    "27": "ေလထီးခုန္ျခင္း",
                    "28": "ျမင္းႏွင့္ျမင္းစီးျခင္း",
                    "29": "ေရငုပ္ျခင္း",
                    "30": "ေရခဲျပင္စကိတ္စီးျခင္း",
                    "31": "ေဘာလံုး႐ိုက္ကစားနည္း",
                    "32": "ႏွင္းေလွ်ာစီးျခင္း",
                    "33": "ေရလႊာေလွ်ာစီးျခင္း"
                }
            ]
        },
		{
            "category_name": "အိမ္ၿခံေျမေရာင္း၀ယ္ေရး",
            "subcategory": [
                {
                    "0": "ေအးဂ်င့္စီမ်ားႏွင့္အက်ိဳးေဆာင္လုပ္ငန္း",
                    "1": "ေအးဂ်င့္မ်ားႏွင့္ပြဲစား",
                    "2": "တိုက္ခန္းႏွင့္ေနအိမ္ငွားရမ္းျခင္း",
                    "3": "အေပါင္ဆိုင္ႏွင့္ေခ်းေငြလုပ္ငန္း",
                    "4": "အိမ္ၿခံေျမစီမံခန္႔ခြဲမႈလုပ္ငန္း",
                    "5": "ကုမၸဏီခြဲ"
                }
            ]
        },
		{
            "category_name": "ေနရာခ်ထားေရး",
            "subcategory": [
                {
                    "0": "ဟိုတယ္",
                    "1": "မိုတယ္",
                    "2": "Guest House",
                    "3": "ေဘာ္ဒါေဆာင္",
                    "4": "အပန္းေျဖစခန္းမ်ား",
                    "5": "ညအိပ္ေဆာင္",
                    "6": "တိုက္ခန္း၀န္ေဆာင္မႈ",
                    "7": "သက္ႀကီးရြယ္အိုေစာင့္ေရွာက္ေရး",
                    "8": "အလြယ္တကူေရႊ႕ေျပာင္းႏိုင္ေသာအိမ္",
                    "9": "ဒုကၡသည္ေစာင့္ေရွာက္ေရး",
                    "10": "ယာယီတဲစခန္းႏွင့္Caravanကားရပ္နားရာေနရာ"
                }
            ]
        },
		 {
            "category_name": "ပြဲစီစဥ္ေရးအဖြဲ႕",
            "subcategory": [
                {
                    "0": "မဂၤလာေဆာင္ ၀န္ေဆာင္မႈ",
                    "1": "မဂၤလာေဆာင္ ပစၥည္း အေရာင္းဆိုင္",
                    "2": "ပါတီသံုး ပစၥည္း အေရာင္းဆိုင္",
                    "3": "ပါတီႏွင့္ ပြဲစီစဥ္ေရး",
                    "4": "ငွားရမ္းေရး",
                    "5": "အခစား",
                    "6": "၀တ္စံု ေရာင္း၀ယ္ငွား လုပ္ေရး",
                    "7": "DJs",
                    "8": "ရုပ္ရွင္ထုတ္လုပ္ေရး",
                    "9": "ဓါတ္ပံုဆရာ",
                    "10": "ေနရာထိုင္ခင္းႏွင့္ ပြဲစီစဥ္ေရး"
                }
            ]
        },
		{
            "category_name": "အစိုးရအဖြဲ႕အစည္း",
            "subcategory": [
                {
                    "0": "ေကာင္စစ္၀န္ႏွင့္သံအမတ္ရုံး",
                    "1": "တရားရုံး",
                    "2": "အေရးေပၚ၀န္ေဆာင္မႈ",
                    "3": "ဖယ္ဒရယ္ အစိုးရ",
                    "4": "စာၾကည့္တိုက္မ်ား",
                    "5": "ေဒသဆိုင္ရာ အစိုးရ",
                    "6": "ႏုိင္ငံေရးအဖြဲ႔အစည္းမ်ား",
                    "7": "အက်ည္းေထာင္မ်ား",
                    "8": "ျပည္နယ္ အစိုးရ"
                }
            ]
        },
		 {
            "category_name": "ဘ႑ာေရး ၀န္ေဆာင္မႈ",
            "subcategory": [
                {
                    "0": "ATMစက္မွ ေငြထုတ္ျခင္း",
                    "1": "ေငြစာရင္းအင္း",
                    "2": "ဘဏ္",
                    "3": "ေပါင္ႏွံပြဲစား",
                    "4": "အေဆာက္အအံု အဖြဲ႕အစည္း",
                    "5": "ေန႔စားအလုပ္သမား",
                    "6": "အာမခံလုပ္ေရး",
                    "7": "ရင္းႏွီးျမဳပ္ႏွံျခင္း",
                    "8": "အေၾကြးစုေဆာင္းေရး",
                    "9": "ႏိုင္ငံျခားေငြလဲလွယ္ျခင္း"
                }
            ]
        },
       
       {
            "category_name": "ဘာသာေရး",
            "subcategory": [
                {
                    "0": " ဘုန္းႀကီးေက်ာင္း",
                    "1": "ခရစ္ရွန္ ဘုရားရွိခိုးေက်ာင္း",
                    "2": "ဟိႏိၵဴ ဘုရားေက်ာင္း",
                    "3": "ဘလီ",
                    "4": "တရားစခန္း",
                    "5": "ဘုရားေက်ာင္း",
                    "6": "ဘာသာေရး အဖြဲ႕အစည္း"
                }
            ]
        },
				{
            "category_name": "အေထြေထြလုပ္ငန္း",
            "subcategory": [
                {
                    "0": "ဘာသာေရးအဖြဲ႕အစည္းမ်ား",
                    "1": "ျပန္လည္ထူေထာင္ေရးအဖြဲ႕",
                    "2": "နာေရးကူညီမႈအသင္းႏွင့္အသုဘစီစဥ္ေရး",
                    "3": "အေထြေထြလုပ္ငန္း",
                    "4": "အက်ိဳးျပဳအဖြဲ႕အစည္း"
                }
            ]
        },
        {
            "category_name": "အသံုးျပဳပစၥည္း",
            "subcategory": [
                {
                    "0": "လွ်ပ္စစ္ဆက္စပ္ပစၥည္း",
                    "1": "ဓါတ္ေငြ႕ႏွင့္ဆက္စပ္ပစၥည္း",
                    "2": "စြန္႔ပစ္ပစၥည္းအက်ိဳးျပဳလုပ္ငန္း",
                    "3": "ေရအသံုးျပဳပစၥည္း"
                }
            ]
        },
		{
            "category_name": "Adult",
            "subcategory": [
                {
                    "0": "Adult Services",
                    "1": "Adult Novelties & Products Retail",
                    "2": "Dating Agency",
                    "3": "Escorts Agencies"
                }
            ]
        }
    ]
}