{
    "busesAvailable": [
        {
            "name_of_bus": "Shwe Mandlar Express",
            "bus_id": "2121212",
            "type_of_class": "first class ",
            "price": "10000",
            "bus_icon": "https://s3.rdbuz.com/assets/images/logo/b_logo.png",
            "arrival_time": "7 PM",
            "departure_time": "6 AM",
            "number_of_seat": "36",
            "rating": "4",
            "condector_number": "099383838",
            "bus_number": "726",
            "route": "yanton to mandalay",
            "route_id": "13",
            "seat_status": ["A","L","S","B","A","A","A","A","A","A","A","A","A","A","A","L","B","B","B","B","B","B","A","A","A","A","A","A","A","A","A","A","A","A","A","A"]

        },
        {
            "name_of_bus": "ACB Mandlar Express",
            "bus_id": "2121w212",
            "type_of_class": "first class ",
            "price": "12000",
            "bus_icon": "https://s3.rdbuz.com/assets/images/logo/b_logo.png",
            "arrival_time": "3 PM",
            "departure_time": "6 AM",
            "number_of_seat": "36",
            "rating": "4",
            "condector_number": "099383838",
            "bus_number": "726",
            "route": "yanton to mandalay",
            "route_id": "13",
            "seat_status": ["A","L","S","B","A","A","A","A","A","A","A","A","A","A","A","L","B","B","B","B","B","B","A","A","A","A","A","A","A","A","A","A","A","A","A","A"]
        },
        {
            "name_of_bus": "DEF Mandlar Express",
            "bus_id": "212w1w212",
            "type_of_class": "first class ",
            "price": "14000",
            "bus_icon": "https://s3.rdbuz.com/assets/images/logo/b_logo.png",
            "arrival_time": "6 PM",
            "departure_time": "6 AM",
            "number_of_seat": "36",
            "rating": "4",
            "condector_number": "099383838",
            "bus_number": "726",
            "route": "yanton to mandalay",
            "route_id": "13",
            "seat_status": ["A","L","S","B","A","A","A","A","A","A","A","A","A","A","A","L","B","B","B","B","B","B","A","A","A","A","A","A","A","A","A","A","A","A","A","A"]
        },
        {
            "name_of_bus": "GHI Mandlar Express",
            "bus_id": "212w1w2w12",
            "type_of_class": "first class ",
            "price": "14000",
            "bus_icon": "https://s3.rdbuz.com/assets/images/logo/b_logo.png",
            "arrival_time": "1 PM",
            "departure_time": "3 AM",
            "number_of_seat": "36",
            "rating": "4",
            "condector_number": "099383838",
            "bus_number": "726",
            "route": "yanton to mandalay",
            "route_id": "13",
            "seat_status": ["A","L","S","B","A","A","A","A","A","A","A","A","A","A","A","L","B","B","B","B","B","B","A","A","A","A","A","A","A","A","A","A","A","A","A","A"]
        }
    ]
}